module bitbucket.org/veeafr/utils.go

go 1.13

require (
	github.com/mattn/go-colorable v0.1.6 // indirect
	github.com/mgutz/ansi v0.0.0-20170206155736-9520e82c474b // indirect
	github.com/onsi/ginkgo v1.12.0 // indirect
	github.com/onsi/gomega v1.9.0 // indirect
	github.com/pkg/errors v0.9.1
	github.com/sirupsen/logrus v1.5.0
	github.com/stretchr/testify v1.5.1
	github.com/x-cray/logrus-prefixed-formatter v0.5.2
	golang.org/x/crypto v0.0.0-20200323165209-0ec3e9974c59 // indirect
)
